%YAML 1.1
%TAG !u! tag:unity3d.com,2011:
--- !u!114 &11400000
MonoBehaviour:
  m_ObjectHideFlags: 0
  m_CorrespondingSourceObject: {fileID: 0}
  m_PrefabInstance: {fileID: 0}
  m_PrefabAsset: {fileID: 0}
  m_GameObject: {fileID: 0}
  m_Enabled: 1
  m_EditorHideFlags: 0
  m_Script: {fileID: 11500000, guid: 3f1ca63a91b17724bbd99c8fa67e0180, type: 3}
  m_Name: Default Material Palette
  m_EditorClassIdentifier: 
  array:
  - {fileID: 2100000, guid: e418baed79328be43b3eb3a7aed42a47, type: 2}
  - {fileID: 2100000, guid: 6b39a220856699545a41ec1f1270aa3b, type: 2}
  - {fileID: 2100000, guid: ea42a7ca048c6094382d7e2772ae4874, type: 2}
  - {fileID: 2100000, guid: 878916599fb9ff14681aa7fef785a127, type: 2}
  - {fileID: 2100000, guid: e4cbbed98f23db0448c8eb00d84803b1, type: 2}
  - {fileID: 2100000, guid: 5ae0031bafec00547977660ec5012812, type: 2}
  - {fileID: 2100000, guid: 73ba36b321a02fd4198c4afbd36ef21a, type: 2}
  - {fileID: 2100000, guid: 9bed588409fe33f4a9869a99ede671e6, type: 2}
  - {fileID: 2100000, guid: a652571647ef59043b420ccde54896b5, type: 2}
  - {fileID: 2100000, guid: 5af3424cde942d8429fd228b72e0f80a, type: 2}
  - {fileID: 2100000, guid: 26a0e3f65044e604da978a729990d0ba, type: 2}
